(kicad_sch (version 20230121) (generator eeschema)

  (uuid 4dbeb849-96de-4e46-8aa0-aa920e60d56d)

  (paper "A4")

  (lib_symbols
    (symbol "Device:L" (pin_numbers hide) (pin_names (offset 1.016) hide) (in_bom yes) (on_board yes)
      (property "Reference" "L" (at -1.27 0 90)
        (effects (font (size 1.27 1.27)))
      )
      (property "Value" "L" (at 1.905 0 90)
        (effects (font (size 1.27 1.27)))
      )
      (property "Footprint" "" (at 0 0 0)
        (effects (font (size 1.27 1.27)) hide)
      )
      (property "Datasheet" "~" (at 0 0 0)
        (effects (font (size 1.27 1.27)) hide)
      )
      (property "ki_keywords" "inductor choke coil reactor magnetic" (at 0 0 0)
        (effects (font (size 1.27 1.27)) hide)
      )
      (property "ki_description" "Inductor" (at 0 0 0)
        (effects (font (size 1.27 1.27)) hide)
      )
      (property "ki_fp_filters" "Choke_* *Coil* Inductor_* L_*" (at 0 0 0)
        (effects (font (size 1.27 1.27)) hide)
      )
      (symbol "L_0_1"
        (arc (start 0 -2.54) (mid 0.6323 -1.905) (end 0 -1.27)
          (stroke (width 0) (type default))
          (fill (type none))
        )
        (arc (start 0 -1.27) (mid 0.6323 -0.635) (end 0 0)
          (stroke (width 0) (type default))
          (fill (type none))
        )
        (arc (start 0 0) (mid 0.6323 0.635) (end 0 1.27)
          (stroke (width 0) (type default))
          (fill (type none))
        )
        (arc (start 0 1.27) (mid 0.6323 1.905) (end 0 2.54)
          (stroke (width 0) (type default))
          (fill (type none))
        )
      )
      (symbol "L_1_1"
        (pin passive line (at 0 3.81 270) (length 1.27)
          (name "1" (effects (font (size 1.27 1.27))))
          (number "1" (effects (font (size 1.27 1.27))))
        )
        (pin passive line (at 0 -3.81 90) (length 1.27)
          (name "2" (effects (font (size 1.27 1.27))))
          (number "2" (effects (font (size 1.27 1.27))))
        )
      )
    )
    (symbol "Device:R" (pin_numbers hide) (pin_names (offset 0)) (in_bom yes) (on_board yes)
      (property "Reference" "R" (at 2.032 0 90)
        (effects (font (size 1.27 1.27)))
      )
      (property "Value" "R" (at 0 0 90)
        (effects (font (size 1.27 1.27)))
      )
      (property "Footprint" "" (at -1.778 0 90)
        (effects (font (size 1.27 1.27)) hide)
      )
      (property "Datasheet" "~" (at 0 0 0)
        (effects (font (size 1.27 1.27)) hide)
      )
      (property "ki_keywords" "R res resistor" (at 0 0 0)
        (effects (font (size 1.27 1.27)) hide)
      )
      (property "ki_description" "Resistor" (at 0 0 0)
        (effects (font (size 1.27 1.27)) hide)
      )
      (property "ki_fp_filters" "R_*" (at 0 0 0)
        (effects (font (size 1.27 1.27)) hide)
      )
      (symbol "R_0_1"
        (rectangle (start -1.016 -2.54) (end 1.016 2.54)
          (stroke (width 0.254) (type default))
          (fill (type none))
        )
      )
      (symbol "R_1_1"
        (pin passive line (at 0 3.81 270) (length 1.27)
          (name "~" (effects (font (size 1.27 1.27))))
          (number "1" (effects (font (size 1.27 1.27))))
        )
        (pin passive line (at 0 -3.81 90) (length 1.27)
          (name "~" (effects (font (size 1.27 1.27))))
          (number "2" (effects (font (size 1.27 1.27))))
        )
      )
    )
    (symbol "Simulation_SPICE:VPULSE" (pin_numbers hide) (pin_names (offset 0.0254)) (in_bom yes) (on_board yes)
      (property "Reference" "V" (at 2.54 2.54 0)
        (effects (font (size 1.27 1.27)) (justify left))
      )
      (property "Value" "VPULSE" (at 2.54 0 0)
        (effects (font (size 1.27 1.27)) (justify left))
      )
      (property "Footprint" "" (at 0 0 0)
        (effects (font (size 1.27 1.27)) hide)
      )
      (property "Datasheet" "~" (at 0 0 0)
        (effects (font (size 1.27 1.27)) hide)
      )
      (property "Sim.Pins" "1=+ 2=-" (at 0 0 0)
        (effects (font (size 1.27 1.27)) hide)
      )
      (property "Sim.Type" "PULSE" (at 0 0 0)
        (effects (font (size 1.27 1.27)) hide)
      )
      (property "Sim.Device" "V" (at 0 0 0)
        (effects (font (size 1.27 1.27)) (justify left) hide)
      )
      (property "Sim.Params" "y1=0 y2=1 td=2n tr=2n tf=2n tw=50n per=100n" (at 2.54 -2.54 0)
        (effects (font (size 1.27 1.27)) (justify left))
      )
      (property "ki_keywords" "simulation" (at 0 0 0)
        (effects (font (size 1.27 1.27)) hide)
      )
      (property "ki_description" "Voltage source, pulse" (at 0 0 0)
        (effects (font (size 1.27 1.27)) hide)
      )
      (symbol "VPULSE_0_0"
        (polyline
          (pts
            (xy -2.032 -0.762)
            (xy -1.397 -0.762)
            (xy -1.143 0.762)
            (xy -0.127 0.762)
            (xy 0.127 -0.762)
            (xy 1.143 -0.762)
            (xy 1.397 0.762)
            (xy 2.032 0.762)
          )
          (stroke (width 0) (type default))
          (fill (type none))
        )
        (text "+" (at 0 1.905 0)
          (effects (font (size 1.27 1.27)))
        )
      )
      (symbol "VPULSE_0_1"
        (circle (center 0 0) (radius 2.54)
          (stroke (width 0.254) (type default))
          (fill (type background))
        )
      )
      (symbol "VPULSE_1_1"
        (pin passive line (at 0 5.08 270) (length 2.54)
          (name "~" (effects (font (size 1.27 1.27))))
          (number "1" (effects (font (size 1.27 1.27))))
        )
        (pin passive line (at 0 -5.08 90) (length 2.54)
          (name "~" (effects (font (size 1.27 1.27))))
          (number "2" (effects (font (size 1.27 1.27))))
        )
      )
    )
    (symbol "power:GND" (power) (pin_names (offset 0)) (in_bom yes) (on_board yes)
      (property "Reference" "#PWR" (at 0 -6.35 0)
        (effects (font (size 1.27 1.27)) hide)
      )
      (property "Value" "GND" (at 0 -3.81 0)
        (effects (font (size 1.27 1.27)))
      )
      (property "Footprint" "" (at 0 0 0)
        (effects (font (size 1.27 1.27)) hide)
      )
      (property "Datasheet" "" (at 0 0 0)
        (effects (font (size 1.27 1.27)) hide)
      )
      (property "ki_keywords" "global power" (at 0 0 0)
        (effects (font (size 1.27 1.27)) hide)
      )
      (property "ki_description" "Power symbol creates a global label with name \"GND\" , ground" (at 0 0 0)
        (effects (font (size 1.27 1.27)) hide)
      )
      (symbol "GND_0_1"
        (polyline
          (pts
            (xy 0 0)
            (xy 0 -1.27)
            (xy 1.27 -1.27)
            (xy 0 -2.54)
            (xy -1.27 -1.27)
            (xy 0 -1.27)
          )
          (stroke (width 0) (type default))
          (fill (type none))
        )
      )
      (symbol "GND_1_1"
        (pin power_in line (at 0 0 270) (length 0) hide
          (name "GND" (effects (font (size 1.27 1.27))))
          (number "1" (effects (font (size 1.27 1.27))))
        )
      )
    )
  )

  (junction (at 144.78 119.38) (diameter 0) (color 0 0 0 0)
    (uuid 54ac3bf0-a979-4591-82f7-271a967b72e8)
  )

  (wire (pts (xy 144.78 132.08) (xy 144.78 135.89))
    (stroke (width 0) (type default))
    (uuid 2b6bda65-7049-4e61-9796-376e6d9e488a)
  )
  (wire (pts (xy 173.99 96.52) (xy 173.99 100.33))
    (stroke (width 0) (type default))
    (uuid 676201ac-8959-4f6f-a0fb-831e1fc1e3ea)
  )
  (wire (pts (xy 144.78 119.38) (xy 144.78 124.46))
    (stroke (width 0) (type default))
    (uuid 941fe12c-f840-4a4c-bc8b-f4448efd922e)
  )
  (wire (pts (xy 115.57 96.52) (xy 115.57 85.09))
    (stroke (width 0) (type default))
    (uuid a501c2c9-2166-48e6-adb5-735716bf634d)
  )
  (wire (pts (xy 173.99 119.38) (xy 144.78 119.38))
    (stroke (width 0) (type default))
    (uuid ca1d0be5-3452-4fa3-8f52-fd1ac9878617)
  )
  (wire (pts (xy 115.57 106.68) (xy 115.57 119.38))
    (stroke (width 0) (type default))
    (uuid d84a2483-2ff3-4c11-9a28-f6824ccadc2c)
  )
  (wire (pts (xy 144.78 119.38) (xy 115.57 119.38))
    (stroke (width 0) (type default))
    (uuid df4cb0d1-aa0e-4797-9817-d17c449bafd5)
  )
  (wire (pts (xy 115.57 85.09) (xy 173.99 85.09))
    (stroke (width 0) (type default))
    (uuid e180ffb7-1550-4d27-876a-9a08c9fbfc07)
  )
  (wire (pts (xy 173.99 107.95) (xy 173.99 119.38))
    (stroke (width 0) (type default))
    (uuid ed0fc737-b418-4b78-8cc2-a29e088dbb9a)
  )
  (wire (pts (xy 173.99 85.09) (xy 173.99 88.9))
    (stroke (width 0) (type default))
    (uuid f1d36cfa-3cbd-4477-9e70-f7e5a79c57b5)
  )

  (symbol (lib_id "Simulation_SPICE:VPULSE") (at 115.57 101.6 0) (unit 1)
    (in_bom yes) (on_board yes) (dnp no)
    (uuid 1886b608-7043-41f6-a88e-32f488941e4f)
    (property "Reference" "V101" (at 119.38 98.9302 0)
      (effects (font (size 1.27 1.27)) (justify left))
    )
    (property "Value" "VPULSE" (at 119.38 101.4702 0)
      (effects (font (size 1.27 1.27)) (justify left))
    )
    (property "Footprint" "" (at 115.57 101.6 0)
      (effects (font (size 1.27 1.27)) hide)
    )
    (property "Datasheet" "~" (at 115.57 101.6 0)
      (effects (font (size 1.27 1.27)) hide)
    )
    (property "Sim.Pins" "1=+ 2=-" (at 115.57 101.6 0)
      (effects (font (size 1.27 1.27)) hide)
    )
    (property "Sim.Type" "PULSE" (at 115.57 101.6 0)
      (effects (font (size 1.27 1.27)) hide)
    )
    (property "Sim.Device" "V" (at 115.57 101.6 0)
      (effects (font (size 1.27 1.27)) (justify left) hide)
    )
    (property "Sim.Params" "y1=48 y2=0 td=0 tr=0.18u tf=0.09u tw=0.1m per=0.2m np=3000" (at 119.38 104.0102 0)
      (effects (font (size 1.27 1.27)) (justify left))
    )
    (pin "1" (uuid 21f0828c-63a5-4b45-9cab-5f26ce76ce2b))
    (pin "2" (uuid d4196ee7-3974-4603-8362-4163ce0f8cd2))
    (instances
      (project "current_ripple_spice_sim"
        (path "/4dbeb849-96de-4e46-8aa0-aa920e60d56d"
          (reference "V101") (unit 1)
        )
      )
    )
  )

  (symbol (lib_id "Device:L") (at 173.99 92.71 0) (unit 1)
    (in_bom yes) (on_board yes) (dnp no)
    (uuid 34ee994b-6093-40cc-a034-95a24c2ef8b8)
    (property "Reference" "L101" (at 175.26 91.44 0)
      (effects (font (size 1.27 1.27)) (justify left))
    )
    (property "Value" "24m" (at 175.26 93.98 0)
      (effects (font (size 1.27 1.27)) (justify left))
    )
    (property "Footprint" "" (at 173.99 92.71 0)
      (effects (font (size 1.27 1.27)) hide)
    )
    (property "Datasheet" "~" (at 173.99 92.71 0)
      (effects (font (size 1.27 1.27)) hide)
    )
    (pin "1" (uuid b4f681dc-518a-400e-94f8-435be74b365d))
    (pin "2" (uuid a8742ee8-a438-480a-8e86-3e2472425a74))
    (instances
      (project "current_ripple_spice_sim"
        (path "/4dbeb849-96de-4e46-8aa0-aa920e60d56d"
          (reference "L101") (unit 1)
        )
      )
    )
  )

  (symbol (lib_id "Device:R") (at 144.78 128.27 0) (unit 1)
    (in_bom yes) (on_board yes) (dnp no) (fields_autoplaced)
    (uuid 91a6f980-2df7-4b25-9880-862bff598215)
    (property "Reference" "R102" (at 147.32 127 0)
      (effects (font (size 1.27 1.27)) (justify left))
    )
    (property "Value" "10M" (at 147.32 129.54 0)
      (effects (font (size 1.27 1.27)) (justify left))
    )
    (property "Footprint" "" (at 143.002 128.27 90)
      (effects (font (size 1.27 1.27)) hide)
    )
    (property "Datasheet" "~" (at 144.78 128.27 0)
      (effects (font (size 1.27 1.27)) hide)
    )
    (pin "1" (uuid 37a8452f-48c1-424d-8cc0-e127e34a83c4))
    (pin "2" (uuid b4b61ad2-cbdf-43e3-b07e-3c08bdfe853f))
    (instances
      (project "current_ripple_spice_sim"
        (path "/4dbeb849-96de-4e46-8aa0-aa920e60d56d"
          (reference "R102") (unit 1)
        )
      )
    )
  )

  (symbol (lib_id "power:GND") (at 144.78 135.89 0) (unit 1)
    (in_bom yes) (on_board yes) (dnp no) (fields_autoplaced)
    (uuid b3e25cc1-0740-404b-8c12-e1c423aa70cf)
    (property "Reference" "#PWR0101" (at 144.78 142.24 0)
      (effects (font (size 1.27 1.27)) hide)
    )
    (property "Value" "GND" (at 144.78 140.97 0)
      (effects (font (size 1.27 1.27)))
    )
    (property "Footprint" "" (at 144.78 135.89 0)
      (effects (font (size 1.27 1.27)) hide)
    )
    (property "Datasheet" "" (at 144.78 135.89 0)
      (effects (font (size 1.27 1.27)) hide)
    )
    (pin "1" (uuid 99bc5389-7d12-4744-93d6-d300693932d5))
    (instances
      (project "current_ripple_spice_sim"
        (path "/4dbeb849-96de-4e46-8aa0-aa920e60d56d"
          (reference "#PWR0101") (unit 1)
        )
      )
    )
  )

  (symbol (lib_id "Device:R") (at 173.99 104.14 0) (unit 1)
    (in_bom yes) (on_board yes) (dnp no)
    (uuid c4d71950-003b-4dc4-9453-f545d148b9c7)
    (property "Reference" "R101" (at 176.53 102.87 0)
      (effects (font (size 1.27 1.27)) (justify left))
    )
    (property "Value" "50" (at 176.53 105.41 0)
      (effects (font (size 1.27 1.27)) (justify left))
    )
    (property "Footprint" "" (at 172.212 104.14 90)
      (effects (font (size 1.27 1.27)) hide)
    )
    (property "Datasheet" "~" (at 173.99 104.14 0)
      (effects (font (size 1.27 1.27)) hide)
    )
    (pin "1" (uuid 2c3bc41f-0c32-48f7-82ec-89c86850fc54))
    (pin "2" (uuid e8376da1-ca2c-443d-8e34-886443bd729e))
    (instances
      (project "current_ripple_spice_sim"
        (path "/4dbeb849-96de-4e46-8aa0-aa920e60d56d"
          (reference "R101") (unit 1)
        )
      )
    )
  )

  (sheet_instances
    (path "/" (page "1"))
  )
)
