-17.632141	5.032034	-32.928459
-18.780033	5.072077	-33.275494
-17.872398	5.272291	-32.421249
-18.045916	5.032034	-33.021893
-18.526428	5.138815	-33.302189
-17.765617	5.032034	-31.620396
-17.952482	4.898559	-32.875069
-17.725574	4.871863	-32.421249
-17.658836	4.67165	-32.207687
-17.725574	4.871863	-34.676991
-17.52536	4.965296	-32.768288
-18.419647	4.991992	-33.248798
-17.632141	5.298985	-33.449013
-17.75227	4.925254	-32.915112
-18.726643	4.965296	-33.315536
-17.712227	5.352376	-33.355579
-17.872398	4.938601	-31.446877
-18.01922	4.831821	-32.808331
-16.59103	4.791778	-32.341164
-17.738922	4.444741	-32.648159
-17.565403	4.885211	-33.595837
-17.498665	4.925254	-33.03524
-18.633209	4.991992	-33.395622
-17.778965	5.178858	-32.180992
-17.565403	4.938601	-33.101974
-18.419647	5.11212	-33.368927
-17.832355	5.032034	-31.433531
-17.952482	4.845168	-32.968502
-17.445276	4.818473	-32.421249
-17.632141	4.564869	-32.207687
-17.605446	4.831821	-34.770424
-17.485317	4.871863	-32.794983
-19.34063	3.830753	-32.821678
-18.90016	4.591565	-33.395622
-6.54031	5.939669	-37.973839
4.297918	7.194341	-38.36092
17.52536	8.008543	-34.463428
26.281368	6.260011	-28.924187
27.36252	1.054458	-28.376936
20.621998	-5.539242	-32.381207
-1.81527	-13.481047	-35.064068
-20.688736	-1.828617	-31.340097
-17.071543	23.438335	-23.224773
1.388147	29.618259	-9.730379
-1.86866	38.36092	5.018687
-1.281367	36.999466	23.798719
-0.38708	31.166578	33.302189
-0.947678	25.667379	39.001602
-10.344368	27.576082	35.424454
-12.413241	31.446877	29.498133
-8.876135	36.639084	24.199146
2.709557	37.026161	26.975441
14.668981	32.768288	29.351309
22.757608	26.121197	30.939671
33.729313	9.143086	27.816338
38.027229	-6.446877	17.0315
36.665779	-16.083822	-0.200214
22.744261	-19.060331	-23.998932
-2.322477	-10.904965	-34.423386
-18.993593	10.411105	-29.51148
-16.123865	29.004272	-18.473038
-5.245595	26.86866	-6.246663
-10.344368	28.910839	0.787507
-9.089696	33.275494	20.915644
-4.911906	27.455954	33.622532
-4.084357	21.316071	39.615589
-2.522691	17.872398	43.152699
-4.271223	11.438869	46.703152
-8.729312	11.465564	46.422852
-14.775762	20.315002	41.417515
-18.940203	28.884144	32.915112
-15.44314	32.661507	31.446877
-9.156434	32.24773	35.451149
-2.549386	29.164442	40.056061
6.486919	17.712227	46.115856
13.414309	0.05339	47.463963
15.576615	-13.24079	43.593166
16.764549	-23.825415	36.011745
19.193808	-32.794983	21.155901
17.685532	-37.172985	1.027763
10.624666	-32.674854	-19.487453
1.241324	-19.033636	-33.168713
-3.123332	0.05339	-37.279766
-12.653498	18.259478	-30.379072
-16.524294	31.246664	-17.231714
-16.550987	40.45649	4.004272
-10.824881	42.298454	15.082755
1.641751	40.923653	24.759745
8.302189	29.684998	38.521091
4.324613	25.186867	41.711159
6.580352	28.256807	38.013882
29.204485	15.10945	31.04645
34.823814	3.68393	27.883076
36.812599	-2.41591	24.626268
40.830219	-6.473572	5.205553
38.974907	-12.026161	9.45008
35.638016	-17.3118	-7.421249
16.470903	-7.981847	-33.675922
1.521623	12.479979	-35.170849
-16.59103	22.97117	-25.200214
-18.45969	17.80566	-26.815269
-4.030966	18.713295	-29.991993
14.5622	27.015484	-21.98345
18.793381	35.504539	-2.562734
10.958356	39.041645	17.018152
-12.973839	37.253071	29.805126
-32.074215	17.071543	36.585693
-26.801922	-2.135611	45.475174
11.21196	2.055526	48.478378
40.990391	0.040043	14.45542
32.915112	8.969567	-22.69087
-4.084357	25.827551	-29.084358
-22.357182	11.305392	-29.885212
-8.46236	4.1244	-37.19968
12.439937	10.357716	-33.021893
18.566471	28.470369	-19.754406
5.99306	40.710091	2.255739
-9.410038	40.763481	19.474106
-17.271757	34.3433	29.72504
-21.342766	18.01922	43.379604
1.895355	6.954084	49.839828
17.979177	-3.950881	43.953552
26.935398	-15.656701	32.901764
30.726109	-25.186867	15.336359
24.185799	-33.168713	0.54725
18.112654	-33.435665	-11.732515
5.953017	-20.32835	-31.486919
-0.453817	4.644955	-36.839294
-5.285638	27.255739	-26.721838
-7.754939	33.515751	-19.380672
-6.833956	41.457554	-3.069941
-0.98772	42.52536	17.431929
-0.680726	32.634811	37.293114
-4.151094	17.872398	47.717567
-0.760812	3.056594	50.814201
1.48158	6.793914	49.906567
-0.867592	4.458089	49.799789
-1.334757	7.314469	49.506142
-3.483716	4.67165	50.173519
-5.298985	-6.313401	50.053391
-7.381207	-16.724506	46.863323
-0.54725	-30.672718	36.145222
11.865991	-39.548855	10.838227
15.54992	-37.293114	-2.549386
17.285105	-33.609184	-14.402029
13.547785	-24.079018	-26.147892
-6.139883	-4.28457	-32.808331
-10.27763	29.311266	-18.032568
-3.697277	41.857983	13.360919
0.333689	39.415379	24.119061
-1.308062	37.546719	28.73732
4.644955	33.569141	34.369995
3.657234	6.620395	50.0
6.98078	-20.848906	42.578751
9.00961	-37.066204	21.20929
7.074213	-38.574482	-7.794981
5.939669	-23.85211	-28.056595
1.268019	-17.004805	-31.914042
0.787507	-6.246663	-34.717033
9.863855	11.412173	-31.860653
5.285638	25.560598	-26.534971
-6.273358	33.529099	-19.073679
-18.059263	38.107315	-0.467165
-25.707422	34.289909	6.713828
-33.742661	23.985584	19.607582
-38.08062	18.766685	14.895889
-36.86599	9.78377	-13.227443
-1.241324	1.147891	-36.185265
26.187935	3.430326	-25.040043
34.730381	-0.453817	-14.775762
37.85371	-0.694074	-5.11212
39.882542	-1.054458	14.161773
11.999466	10.931661	47.036842
-12.466631	12.373199	48.144688
-24.199146	12.853711	42.47197
-27.909771	15.216231	37.973839
-40.630005	14.308597	3.750668
-26.561666	8.876135	-25.747465
-13.360919	5.71276	-33.12867
12.947144	4.23118	-33.208755
28.630541	8.609183	-21.970102
35.157501	13.214095	-9.316605
35.571278	16.777897	-3.804058
34.236519	21.316071	11.692472
32.875069	25.827551	2.696209
27.415911	29.297918	-5.085424
26.775229	29.711693	-5.872931
25.894287	30.045382	-7.861719
27.896423	28.336893	-7.52803
21.369461	34.810467	-3.563802
23.211426	34.690338	16.070475
27.122265	21.689802	30.912975
32.060867	0.146823	32.541378
29.67165	-7.875067	33.515751
29.658302	-23.424988	20.982382
26.001068	-31.32675	11.972772
27.602777	-28.977577	-7.08756
26.054459	-20.862253	-20.288307
22.677523	-19.260546	-22.677523
24.372665	-19.67432	-22.517353
22.797651	-22.570744	-22.223705
23.451683	-24.279232	-20.541912
24.893221	-19.647625	-23.238121
26.735186	-11.21196	-25.880939
27.696211	0.360384	-26.588362
29.604912	20.448479	-16.163908
28.270155	25.200214	-13.1874
27.522692	17.285105	-21.462894
28.710625	-2.108916	-24.959957
30.285639	-21.342766	-13.400961
26.775229	-31.366793	2.028831
26.147892	-31.286707	11.839295
18.4063	-30.792847	26.815269
17.044847	-19.514149	38.934864
14.5622	-10.464496	44.247196
10.918313	-3.630539	47.036842
10.077416	-12.106247	44.981316
7.341164	-6.033102	48.091297
2.843033	-4.23118	49.265884
0.453817	-2.816338	49.786442
-0.120128	-3.176722	50.053391
0.800854	-3.950881	50.266953
2.042178	-5.138815	50.240257
2.80299	-4.684998	50.186867
4.111052	-4.925254	49.693008
4.564869	-4.818473	49.172451
4.578217	-5.085424	48.945541
2.442605	-5.99306	49.225842
-6.326749	-9.810465	48.972237
-25.827551	-9.143086	42.498665
-40.122799	-12.613455	20.435131
-40.443142	-6.687133	-5.953017
-32.114258	-3.24346	-20.715431
-5.005339	0.533903	-35.05072
5.792846	-5.953017	-34.356647
22.42392	-4.911906	-29.204485
28.497065	-4.097704	-24.679659
15.576615	5.339028	-33.382275
-11.599039	2.349173	-33.422318
-30.138815	-2.642819	-21.155901
-37.253071	-2.963161	30.926323
-14.135077	-11.185265	47.210358
2.229044	1.761879	49.759747
11.505607	7.287774	46.316071
5.192205	13.828084	46.689804
-2.41591	17.712227	46.169247
-2.202349	20.808863	44.927925
-13.868126	27.269087	39.01495
-21.356113	17.058195	42.031502
-24.265884	12.533369	40.896957
-22.770956	7.421249	43.833424
-21.623066	-6.820609	44.273891
-17.832355	-11.839295	45.114792
-8.288841	-18.179392	45.194874
0.88094	-20.515217	44.100376
4.271223	-23.638548	41.003738
9.94394	-26.828617	35.744797
8.715964	-25.480513	38.093967
9.83716	-19.113722	42.512012
9.957288	-17.191671	43.246132
10.517886	-14.855846	44.060333
14.855846	-5.979712	45.768822
18.24613	4.257875	44.62093
17.178324	3.870796	46.049122
15.269621	11.585691	45.395088
11.612387	16.684464	44.95462
15.870262	18.366259	41.070477
11.31874	20.261612	41.617725
8.368927	21.04912	42.058197
5.499199	17.712227	44.821144
-0.533903	17.325148	45.875603
-5.939669	17.004805	46.476242
-11.70582	15.10945	46.48959
-16.083822	10.87827	46.449547
-23.838762	-1.014415	44.313934
-24.145756	-7.394554	43.726643
-15.977042	-13.160705	46.062469
-2.562734	-0.453817	49.959957
9.316605	14.308597	46.035774
9.890551	27.295782	38.000534
11.465564	32.901764	30.045382
15.710092	32.995197	25.760813
19.741058	33.649227	18.446342
21.115858	34.770424	9.022958
23.331554	32.007477	-2.015483
23.598505	22.931128	-16.831287
21.796583	16.297384	-21.823278
19.67432	11.145222	-24.052322
19.914576	5.579285	-26.227978
22.183662	3.8441	-27.776295
18.366259	0.013348	-29.818474
16.177256	-12.25307	-29.391352
10.157501	-23.024561	-25.947678
2.80299	-35.371063	-14.041645
-1.107848	-40.376404	-3.109984
-3.657234	-41.964764	4.337961
-9.490123	-41.284039	12.773625
-13.561132	-39.562202	16.938068
-17.47197	-36.131874	22.931128
-20.888948	-31.38014	28.57715
-25.106781	-25.880939	31.98078
-25.587294	-15.816872	40.763481
-22.584091	-6.300054	45.862255
-19.353977	3.870796	47.624134
-16.844635	14.001602	46.449547
-16.804592	18.73999	44.807796
-15.229579	21.903364	44.006943
-14.895889	23.558462	43.059265
-24.83983	24.279232	35.477844
-34.917248	18.192739	27.14896
-41.804592	5.792846	15.269621
-42.15163	-12.533369	9.463428
-34.690338	-26.70849	7.180993
-25.040043	-33.46236	-5.178858
-17.52536	-26.908703	-22.944475
-18.539776	-14.628938	-30.232248
-22.14362	-2.816338	-31.300055
-20.341698	17.285105	-28.697277
-2.042178	36.478912	-18.940203
17.138281	35.424454	-15.576615
27.883076	23.812067	-19.287241
20.501869	17.96583	-28.643887
13.961559	15.509877	-31.914042
11.825948	15.870262	-31.847305
10.264282	14.241858	-32.447945
5.2189	-9.490123	-33.542446
-10.904965	0.040043	-27.58943
-17.391886	-5.525895	-28.350241
-23.024561	4.151094	-25.49386
-35.98505	8.235452	-10.918313
-41.070477	8.622531	0.854245
-41.457554	6.633743	22.877737
-30.752804	6.660438	40.856915
-8.756006	11.065136	50.373734
22.650827	19.127069	38.73465
26.388147	19.62093	36.118526
23.184731	3.630539	42.618793
37.560066	4.164442	23.678591
39.29525	-3.657234	17.618793
29.057663	-29.044315	4.898559
18.01922	-35.651363	-3.817405
14.935932	-34.890553	-10.624666
15.069407	-33.168713	-13.414309
20.11479	-30.806194	-13.254138
18.499733	-30.152163	-17.778965
11.385478	-33.609184	-19.67432
-5.232248	-37.573414	-16.791245
-27.255739	-32.70155	-4.030966
-34.596905	-25.133476	2.589429
-34.39669	-25.293648	8.809397
-33.836094	-20.595303	26.615057
-30.258944	4.898559	39.428726
-16.243994	29.738388	34.076347
19.714363	29.471437	28.136681
37.573414	-15.736786	8.51575
14.709023	-36.49226	-8.51575
-4.911906	-37.933796	-13.280833
-21.222637	-35.010677	-10.210892
-32.421249	-29.418047	-2.869728
-37.306461	-25.253605	15.10945
-32.75494	-21.48959	30.459158
-33.756008	-19.273893	28.123333
-26.187935	-31.246664	13.400961
-19.941271	-35.104111	5.806193
-10.104112	-39.508812	0.05339
7.554725	-40.042713	-7.848372
14.495462	-35.224239	-15.803524
2.709557	-25.120129	-16.617725
-15.229579	-33.542446	-10.090764
-5.646023	-42.124935	3.403631
14.775762	-38.988255	11.745863
31.019754	-17.164976	27.80299
25.520555	15.536572	37.079552
0.226909	36.025093	32.127605
-29.097706	29.217833	25.0
-41.377472	6.246663	25.507208
-37.720238	-22.717566	17.512012
-25.467165	-33.889484	-2.682862
-10.491191	-36.972771	-9.263214
5.2189	-37.613457	-12.520021
17.378538	-32.875069	-17.485317
24.78644	-23.691938	-23.184731
20.154833	-12.920449	-32.407902
8.342232	-6.353444	-36.946075
-0.907635	-9.476775	-34.156433
-6.753871	-15.483183	-24.813135
-12.933796	-18.206087	-8.876135
-20.782167	-22.904432	-5.926322
-20.088095	-32.75494	-8.355579
-9.249866	-40.45649	-3.403631
-2.669514	-41.510944	-3.056594
-1.655099	-39.255207	-11.572344
-0.306994	-36.71917	-16.924721
2.282435	-34.730381	-19.554192
21.449547	-28.52376	-16.53764
38.040577	-11.051789	16.59103
25.520555	-10.864923	37.172985
24.119061	-22.570744	30.766151
24.666311	-29.871864	20.835558
10.811533	-37.466633	22.010145
-12.947144	-41.203953	9.049653
-22.624132	-34.476776	-10.4378
-10.237587	-36.465565	-19.006941
11.385478	-19.727711	-33.048588
-0.226909	-11.252003	-36.612389
-9.516818	-17.605446	-32.154297
-15.016018	-23.198078	-26.695143
-11.21196	-36.198612	-13.1874
9.383343	-39.94928	1.027763
36.785908	-7.327816	22.944475
15.856915	32.167645	32.060867
-16.53764	34.236519	30.939671
-41.404167	9.410038	20.475174
-39.001602	-20.261612	-0.907635
-20.848906	-32.581421	-13.908169
-1.695142	-38.200748	-12.720235
15.136146	-37.42659	-7.52803
28.857449	-30.405767	-2.883075
39.402031	-16.791245	-1.441538
37.626804	-4.044314	-16.604378
28.603846	-6.353444	-27.375868
12.293113	-27.282434	-23.611853
4.684998	-34.957287	-16.617725
9.223171	-39.535507	-5.152163
27.843033	-29.578217	13.734651
34.890553	-3.937533	28.884144
13.000534	33.489056	31.420183
-22.504005	30.058729	25.667379
-43.820076	2.30913	7.928457
-32.327816	-30.232248	2.536038
-16.110518	-38.934864	-2.709557
-3.657234	-40.309666	-5.432461
14.495462	-36.425522	-0.840897
32.407902	-28.043247	4.378003
41.364124	-15.38975	-0.226909
36.318741	-9.570209	-17.124933
29.044315	-12.827016	-21.836626
28.844101	-17.25841	-16.631073
26.695143	-23.785372	-9.636947
21.903364	-32.434597	0.667379
17.632141	-36.932728	7.608116
11.959424	-37.359852	17.044847
15.00267	-33.796051	10.87827
21.115858	-25.640684	-21.436199
6.166578	-37.506676	-12.786973
24.185799	-33.195408	-1.962093
40.403099	-7.608116	12.239722
25.547251	20.341698	34.85051
-19.313936	13.280833	45.675388
-36.532303	-19.941271	22.91778
-18.286173	-38.454353	1.441538
2.015483	-40.336361	-7.180993
22.851042	-31.780567	-15.363054
21.863321	-18.4063	-28.643887
13.013882	-16.510946	-33.03524
6.313401	-18.166044	-33.756008
-1.86866	-19.167112	-33.649227
-2.936466	-21.729845	-32.167645
13.561132	-30.258944	-21.062468
38.120663	-13.934864	9.583556
29.137747	11.011746	35.237587
4.658302	24.666311	42.872398
-29.204485	21.743193	32.714897
-43.08596	-6.206621	1.361452
-26.041111	-31.313402	-8.489056
-5.726108	-39.72237	-9.770422
22.904432	-35.597973	-5.65937
31.887348	-27.736252	-6.820609
29.084358	-24.986652	-15.122798
24.092365	-26.6551	-18.646557
16.457556	-27.415911	-23.371597
9.810465	-30.859585	-22.010145
40.323013	-7.114255	9.156434
31.5937	6.473572	33.222103
6.780566	21.195942	44.447411
-11.892686	31.513615	36.398827
-30.766151	23.892153	29.778431
-43.446342	1.761879	18.526428
-40.016018	-18.085958	3.697277
-29.23118	-30.085424	-3.79071
-16.043781	-37.359852	-6.567005
-2.736252	-41.203953	-4.871863
20.60865	-36.852642	-1.014415
24.265884	-34.983982	-0.173518
16.09717	-38.214096	-3.109984
16.978111	-37.880405	-2.522691
20.501869	-35.811535	-2.829685
22.303791	-35.357716	-0.240256
22.864389	-35.117458	5.125467
23.918848	-33.46236	8.836092
25.654032	-30.699413	12.626802
27.36252	-27.269087	17.75227
30.272291	-21.836626	22.450615
33.03524	-10.864923	29.151094
27.776295	4.72504	39.028297
2.055526	27.562735	42.271759
-24.799788	31.019754	27.189003
-40.082756	16.270689	19.67432
-43.539776	1.561666	19.754406
-39.121731	-14.361986	23.585157
-29.644955	-31.09984	12.226375
-16.230646	-40.016018	5.16551
-11.825948	-40.376404	-7.447945
-0.800854	-38.667912	-16.604378
9.263214	-34.436733	-20.928991
11.972772	-31.807262	-21.422852
13.400961	-26.615057	-25.013348
6.300054	-29.244528	-25.146824
8.836092	-33.101974	-20.395088
16.243994	-35.397758	-11.091831
34.209824	-22.263748	4.684998
29.45809	23.064602	26.575014
-4.204485	41.190605	21.502937
-25.613989	34.129738	19.567539
-37.813667	20.969034	19.207155
-43.473038	-1.32141	19.100374
-38.374268	-24.29258	7.007475
-28.977577	-31.673786	-3.203417
-20.021357	-36.225307	-10.651361
-9.623599	-40.269623	-11.852643
4.751735	-40.776829	-12.052856
13.13401	-33.222103	-19.247198
11.345435	-27.162308	-24.412708
8.84944	-25.920982	-26.241325
7.848372	-31.09984	-21.70315
5.939669	-35.037373	-17.25841
6.260011	-37.613457	-11.919381
12.666845	-39.201817	-0.974373
26.962093	-28.29685	19.954618
23.491726	8.56914	41.764549
-6.54031	31.76722	38.027229
-27.282434	30.152163	25.800856
-37.973839	16.737854	22.864389
-37.586761	-1.735184	30.686066
-33.956223	-19.994661	25.0
-25.133476	-35.224239	11.545649
-13.214095	-41.804592	0.867592
9.183129	-42.405231	-2.215697
24.639616	-32.407902	-10.024026
23.745329	-27.002136	-18.446342
17.819008	-28.96423	-20.76882
20.875601	-29.351309	-17.52536
21.743193	-29.698345	-15.603311
19.874533	-32.421249	-12.479979
25.77416	-32.10091	-1.361452
32.261078	-19.781101	21.289375
21.502937	4.111052	42.885746
-7.928457	20.248266	45.581955
-34.316605	9.3433	34.770424
-37.253071	-12.973839	28.603846
-29.271223	-31.406836	17.605446
-18.206087	-40.536572	10.371062
-10.170849	-43.753338	5.499199
7.487988	-43.593166	4.217833
13.561132	-40.549919	1.414842
16.697811	-37.039509	-6.04645
18.980246	-32.98185	-13.360919
16.310732	-32.901764	-15.162841
15.403097	-34.596905	-12.666845
13.280833	-38.441006	-4.978644
13.254138	-39.815804	4.337961
21.48959	-33.008545	18.713295
27.122265	-8.168714	36.505608
9.329952	26.334757	40.483185
-21.062468	33.315536	27.402563
-36.452217	19.874533	23.651896
-34.983982	2.282435	34.57021
-32.407902	-18.326216	29.72504
-20.194876	-38.120663	19.487453
-13.467699	-43.379604	8.048585
-0.694074	-44.113724	-2.162307
12.867059	-39.148426	-5.192205
12.907102	-33.982918	-17.058195
10.664709	-34.9039	-16.737854
8.048585	-39.562202	-6.54031
11.825948	-39.535507	3.043246
18.940203	-35.197544	13.400961
29.938602	-11.078484	30.472506
16.123865	25.600641	37.293114
-14.281901	36.759212	27.242393
-27.402563	27.082222	30.405767
-31.09984	1.187934	39.508812
-28.123333	-19.34063	35.290977
-21.04912	-37.373199	21.289375
-14.415377	-43.513081	6.260011
-1.588361	-43.753338	-6.500267
3.79071	-38.681259	-14.709023
6.54031	-35.037373	-17.885746
4.885211	-33.649227	-20.368393
1.962093	-38.013882	-12.560064
7.140951	-39.869194	-5.16551
16.337427	-38.107315	2.335825
25.213562	-31.473572	14.588895
29.631607	-18.152697	28.270155
25.413774	13.08062	38.08062
-6.206621	37.346504	30.005341
-30.819542	27.335825	23.718634
-35.731449	7.63481	33.302189
-31.433531	-15.069407	33.542446
-23.558462	-33.956223	23.024561
